module gitlab.com/danilpan/arm-logger

go 1.22.0

require (
	github.com/gin-gonic/gin v1.9.1
	github.com/gofiber/fiber/v3 v3.0.0-20240328094538-dfe5c6fd0427
	github.com/google/uuid v1.6.0
	github.com/labstack/echo/v4 v4.11.4
	github.com/rs/zerolog v1.32.0
	github.com/stretchr/testify v1.9.0
)

require (
	github.com/andybalholm/brotli v1.1.0 // indirect
	github.com/bytedance/sonic v1.9.1 // indirect
	github.com/chenzhuoyu/base64x v0.0.0-20221115062448-fe3a3abad311 // indirect
	github.com/davecgh/go-spew v1.1.1 // indirect
	github.com/gabriel-vasile/mimetype v1.4.2 // indirect
	github.com/gin-contrib/sse v0.1.0 // indirect
	github.com/go-playground/locales v0.14.1 // indirect
	github.com/go-playground/universal-translator v0.18.1 // indirect
	github.com/go-playground/validator/v10 v10.14.0 // indirect
	github.com/goccy/go-json v0.10.2 // indirect
	github.com/gofiber/utils/v2 v2.0.0-beta.4 // indirect
	github.com/json-iterator/go v1.1.12 // indirect
	github.com/klauspost/compress v1.17.6 // indirect
	github.com/klauspost/cpuid/v2 v2.2.4 // indirect
	github.com/labstack/gommon v0.4.2 // indirect
	github.com/leodido/go-urn v1.2.4 // indirect
	github.com/mattn/go-colorable v0.1.13 // indirect
	github.com/mattn/go-isatty v0.0.20 // indirect
	github.com/modern-go/concurrent v0.0.0-20180306012644-bacd9c7ef1dd // indirect
	github.com/modern-go/reflect2 v1.0.2 // indirect
	github.com/pelletier/go-toml/v2 v2.0.8 // indirect
	github.com/pmezard/go-difflib v1.0.0 // indirect
	github.com/twitchyliquid64/golang-asm v0.15.1 // indirect
	github.com/ugorji/go/codec v1.2.11 // indirect
	github.com/valyala/bytebufferpool v1.0.0 // indirect
	github.com/valyala/fasthttp v1.52.0 // indirect
	github.com/valyala/fasttemplate v1.2.2 // indirect
	github.com/valyala/tcplisten v1.0.0 // indirect
	golang.org/x/arch v0.3.0 // indirect
	golang.org/x/crypto v0.19.0 // indirect
	golang.org/x/net v0.21.0 // indirect
	golang.org/x/sys v0.17.0 // indirect
	golang.org/x/text v0.14.0 // indirect
	google.golang.org/protobuf v1.30.0 // indirect
	gopkg.in/yaml.v3 v3.0.1 // indirect
)
